import java.io.*;
import java.util.*;
class multii
{
	public static void main(String[]args)
	{
		System.out.println("Enter the num:");
		Scanner a=new Scanner(System.in);
		
		int b=a.nextInt();

		int mul=1;
		for(int i=1;i<=b;i++)
		{
			if(i%2==0)
			{
				mul=i*i;
				System.out.println(mul);
			}
			
			else
			{
				continue;
			}
		}
		

	}
}